<!DOCTYPE html>
<html>
<head>
    <meta charset="utf-8" />
    <title></title>
    <script src="Scripts/jquery-3.3.1.js"></script></script>
    <script type="text/javascript">
        $(document).ready(functiion(){
            ver empName = $('#ulEmp');
            $('#btnGen').click(function () {
                $ajax({
                    type: 'GET',
                    url: 'http://localhost:58029/api/GetMethod',
                    dataType: 'json',
                    success: function (redData) {
                        empName.empty();
                        $.each(retData, function (iIndex, val) {
                            var fullName = val.EmpNo + ' ' + val.empName
                            empNo.append('<li>' + No + '</li>');
                        });
                    }
                });
            });
            $('btnClear').click(function () {
                $('#ulEmp').empty();
            })
        });
    </script>
</head>
<body>
    <input id="Button1" type="button" value="EmployeeName" />
    <input id="Button1" type="button" value="Clear" />
</body>
</html>